[gd_scene load_steps=6 format=3 uid="uid://bkbgnnarwj05s"]

[ext_resource type="Script" path="res://scripts/gameplay.gd" id="1_p5d1r"]
[ext_resource type="PackedScene" uid="uid://dmc4681iwqmgp" path="res://scenes/areas/area_0.tscn" id="1_vwbbg"]
[ext_resource type="PackedScene" uid="uid://cp6aj0vuffpys" path="res://scenes/ui/hud.tscn" id="2_jdnn0"]
[ext_resource type="PackedScene" uid="uid://mgu512rovtvb" path="res://scenes/characters/player/player.tscn" id="2_xxyg5"]
[ext_resource type="PackedScene" uid="uid://c2drgomvl16uy" path="res://scenes/ui/mini_map.tscn" id="3_ihrs4"]

[node name="Gameplay" type="Node2D" groups=["player", "player_start_position"]]
script = ExtResource("1_p5d1r")

[node name="Hub" parent="." instance=ExtResource("2_jdnn0")]

[node name="MiniMap" parent="Hub" node_paths=PackedStringArray("player", "tileMap") instance=ExtResource("3_ihrs4")]
offset_left = 5.0
offset_right = 5.0
player = NodePath("../../Player")
tileMap = NodePath("../../Area/aera_0")

[node name="Area" type="Node2D" parent="." groups=["area_container", "player"]]

[node name="aera_0" parent="Area" instance=ExtResource("1_vwbbg")]

[node name="Player" parent="." instance=ExtResource("2_xxyg5")]
position = Vector2(304, 128)
