[gd_scene load_steps=2 format=3 uid="uid://b7jo0tgtt1hj3"]

[ext_resource type="PackedScene" uid="uid://dmc4681iwqmgp" path="res://scenes/areas/area_0.tscn" id="1_hbvgg"]

[node name="ShowCase" type="Node2D"]

[node name="Area" parent="." instance=ExtResource("1_hbvgg")]
