[gd_scene load_steps=4 format=3 uid="uid://cpfcnxwkhx34b"]

[ext_resource type="Texture2D" uid="uid://ffcyh6sh50k" path="res://arts/LPC-main/Objects/Furniture/Cabinet.png" id="1_tpdct"]

[sub_resource type="AtlasTexture" id="AtlasTexture_xnxck"]
atlas = ExtResource("1_tpdct")
region = Rect2(96, 96, 32, 80)

[sub_resource type="RectangleShape2D" id="RectangleShape2D_hr6ic"]
size = Vector2(34, 27)

[node name="CabinetFront" type="StaticBody2D"]

[node name="Sprite2D" type="Sprite2D" parent="."]
texture = SubResource("AtlasTexture_xnxck")

[node name="CollisionShape2D" type="CollisionShape2D" parent="."]
position = Vector2(0, 21.5)
shape = SubResource("RectangleShape2D_hr6ic")
